{
  "$schema": "schema.json",
  "basics": {
    "name": "Alex M. Ascensión",
    "label": "Computational Biologist",
    "image": "",
    "email": "alexmascension@gmail.com",
    "phone": "(+34) 638 58 50 68",
    "url": "https://www.gitlab.com/alexmascension",
    "summary": "I am a computational biologist interested in joining Biology and Mathematics. I love data analysis and data design. I earned the Biochemistry and Molecular Biology degree at the University of The Basque Country (UPV-EHU), and then I earned the Bioinformatics Masters Degree at Universitat Autonoma de Barcelona (UAB). I am currently studying the Mathematics degree at the National University of Distance Education (UNED), part-time, to complement my programming and science knowledge with some Mathematics.",
    "location": {
      "address": "",
      "postalCode": "",
      "city": "Donostia",
      "countryCode": "ES",
      "region": "Basque Country"
    },
    "profiles": [
      {
        "network": "Twitter",
        "username": "alexmascension",
        "url": "https://twitter.com/alexmascension"
      },
      {
        "network": "Gitlab",
        "username": "alexmascension",
        "url": "https://www.gitlab.com/alexmascension"
      },
      {
        "network": "Linkedin",
        "username": "alexmascension",
        "url": "https://www.linkedin.com/in/alex-mart%C3%ADnez-ascensi%C3%B3n-343580105/"
      },
      {
        "network": "Google Scholar",
        "username": "Alex M. Ascensión",
        "url": "https://scholar.google.es/citations?user=j69k8KEAAAAJ&hl=en"
      },
      {
        "network": "ORCiD",
        "username": "Alex M. Ascensión",
        "url": "https://orcid.org/0000-0002-0013-3052"
      }
    ]
  },
  "work": [
    {
      "name": "Biodonostia Health Research Institute",
      "location": "P/ Doctor Begiristain s/n, 20014, Donostia, Spain",
      "description": "Computational Biology and Systems Biomedicine, Tissue Engineering Groups",
      "position": "Predoctoral researcher",
      "url": "https://www.biodonostia.org/en/",
      "startDate": "2019-01-01",
      "endDate": "Present",
      "summary": "I am currently working on single-cell technologies (scRNA-seq, single-cell spatial technologies, etc.) related to skin and muscle biology, in healthy and wound healing contexts.",
      "highlights": []
    },
    {
      "name": "Biodonostia Health Research Institute",
      "location": "P/ Doctor Begiristain s/n, 20014, Donostia, Spain",
      "description": "Computational Biology and Systems Biomedicine Group",
      "position": "Undergraduate / MSc student",
      "url": "https://www.biodonostia.org/en/",
      "startDate": "2016-07-01",
      "endDate": "2018-12-31",
      "summary": "I perdormed my Bachelor's and Master's thesis on bioinformatics. I developed a software to analyze super-enhancer related ATAC-seq data (NaviSE) as my Bachelor's thesis. I performed several ATAC-seq analyses, and developed parallelized Python scripts for that task during my Master's thesis.",
      "highlights": []
    },
    {
      "name": "Biodonostia Health Research Institute",
      "location": "P/ Doctor Begiristain s/n, 20014, Donostia, Spain",
      "description": "Computational Biology and Systems Biomedicine, Tissue Engineering Groups",
      "position": "Undergraduate",
      "url": "https://www.biodonostia.org/en/",
      "startDate": "2016-06-06",
      "endDate": "2016-06-30",
      "summary": "Study of superenhancer-associated gene variation in the differentiation of skeletal muscle.",
      "highlights": []
    },
    {
      "name": "CIC BiomaGUNE",
      "location": "P/ Miramón 182, 20014, Donostia, Spain",
      "description": "Bionanoplasmonics lab",
      "position": "Undergraduate",
      "url": "http://www.bionanoplasmonics.com/",
      "startDate": "2015-06-29",
      "endDate": "2016-08-15",
      "summary": "I worked under the supervision of Malou Henriksen-Lacey and Eric Hill (Luis Liz Marzán's lab) in the project 'Interaction of Pseudomonas aeruginosa with lung A549 cells and the effects of pyocyanin'.",
      "highlights": []
    },
    {
      "name": "Biofisika, UPV-EHU",
      "location": "Barrio Sarriena, 48940, Leioa, Bizkaia",
      "description": "Optogenetics lab",
      "position": "Undergraduate",
      "url": "https://biofisika.org/author/alvillarroel/",
      "startDate": "2015-02-01",
      "endDate": "2016-05-01",
      "summary": "I worked under the supervision of Álvaro Villarroel. I learned to perform basic biochemistry methods (DNA/RNA purification, PCR, bacterial cloning, etc.).",
      "highlights": []
    }
  ],
    "volunteer": [
    {
      "organization": "RSG Spain",
      "position": "Basque Country leader node",
      "url": "http://www.rsg-spain.iscbsc.org/",
      "startDate": "2019-10-10",
      "endDate": "Present",
      "summary": "Spanish bioinformatics student group.",
      "highlights": []
    }
  ],
  "education": [
      {
      "institution": "National University of Distance Education (UNED)",
      "name": "Bachelor's degree in Mathematics",
      "url": "http://portal.uned.es/portal/page?_pageid=93,56692155&_dad=portal&_schema=PORTAL",
      "area": "Mathematics",
      "studyType": "BSc",
      "startDate": "2016-09-01",
      "endDate": "Present",
      "score": "9.60",
      "courses": [],
      "highlights": [
        "Part time student"
      ]
    },
    {
      "institution": "University of the Basque Country (UPV-EHU)",
      "name": "Doctoral Programme in Molecular Biology and Biomedicine",
      "url": "https://www.ehu.eus/en/web/doktoregoak/doctorate-molecular-biology-biomedicine",
      "area": "Biological Sciences",
      "studyType": "PhD",
      "startDate": "2018-10-01",
      "endDate": "Present",
      "score": "9.60",
      "courses": [],
      "highlights": []
    },
      {
      "institution": "Universitat Autonoma de Barcelona (UAB)",
      "name": "Master's Degree in Bioinformatics",
      "url": "https://www.uab.cat/web/estudiar/la-oferta-de-masteres-oficiales/informacion-general/bioinformatica-/-bioinformatics-1096480309770.html?param1=1327908905033",
      "area": "Biological Sciences",
      "studyType": "MSc",
      "startDate": "2017-10-01",
      "endDate": "2018-07-24",
      "score": "9.60",
      "courses": [],
      "highlights": [
        "Honors in Master's thesis."
      ]
    },
    {
      "institution": "University of the Basque Country (UPV-EHU)",
      "name": "Bachelor's Degree in Biochemistry and Molecular Biology",
      "url": "https://www.ehu.eus/es/grado-bioquimica-y-biologia-molecular",
      "area": "Biological Sciences",
      "studyType": "BSc",
      "startDate": "2013-09-01",
      "endDate": "2017-07-28",
      "score": "8.67",
      "courses": [],
      "highlights": [
        "Graduated with honors.",
        "Honors in Bachelor's thesis."
      ]
    }
    
  ],
  "grants": [
      {
        "title": "Programa Predoctoral de Formación de Personal Investigador No Doctor [Predoc renovación]",
        "code": "PRE_2019_2_0233, PRE_2020_2_0081",
        "startDate": "2020-01-01",
        "endDate": "2022-01-01",
        "provider": "Basque Government, Education Department",
        "summary": ""
        },
      {
        "title": "Programa Predoctoral de Formación de Personal Investigador No Doctor [Predoc berri]",
        "code": "PRE_2018_1_0008",
        "startDate": "2019-01-01",
        "endDate": "2020-01-01",
        "provider": "Basque Government, Education Department",
        "summary": ""
        },
    {
        "title": "Ikasiker collaboration grant",
        "code": "IkasC_2016_1_0017",
        "startDate": "2016-11-30",
        "endDate": "2017-08-30",
        "provider": "Basque Government, Education Department",
        "summary": "Obtained during the development of the Bachelor's thesis."
        }
  ],
  "publications": [],
  "scientific publications": [
    {
      "title": "FOntCell: Fusion of Ontologies of Cells",
      "authors": [
        "Javier Cabau-Laporta", 
        "Alex M. Ascensión", 
        "Mikel Arrospide-Elgarresta",
        "Daniela Gerovska",
        "Marcos J. Araúzo-Bravo"
      ],
      "journal": "Frontiers in Cell and Developmental Biology",
      "volume": "9",
      "year": "2021",
      "month": "02",
      "doi": "https://doi.org/10.3389/fcell.2021.562908",
      "impact factor": "5.186",
      "category": "Developmental Biology",
      "rank": "6/41",
      "pdf": "https://www.frontiersin.org/articles/10.3389/fcell.2021.562908/pdf"
    },
    {
      "title": "Human dermal fibroblast subpopulations are conserved across single-cell RNA sequencing studies",
      "authors": [
        "Alex M. Ascensión", 
        "Sandra Fuertes-Álvarez", 
        "Olga Ibáñez-Solé", 
        "Ander Izeta",
        "Marcos J. Araúzo-Bravo"
      ],
      "journal": "Journal of Investigative Dermatology",
      "volume": "",
      "year": "2020",
      "month": "12",
      "doi": "https://doi.org/10.1016/j.jid.2020.11.028",
      "impact factor": "7.143",
      "category": "Dermatology",
      "rank": "3/68",
      "pdf": "https://www.jidonline.org/action/showPdf?pii=S0022-202X%2820%2932403-9"
    }, 
    {
      "title": "BigMPI4py: Python module for parallelization of Big Data objects discloses germ layer specific DNA demethylation motifs",
      "authors": [
        "Alex M. Ascensión", 
        "Marcos J. Araúzo-Bravo"
      ],
      "journal": "IEEE-ACM Transactions on Computational Biology and Bioinformatics",
      "volume": "",
      "year": "2020",
      "month": "12",
      "doi": "https://doi.org/10.1109/TCBB.2020.3043979",
      "impact factor": "3.015",
      "category": "Statistics and Probability",
      "rank": "11/124",
      "pdf": "https://www.researchgate.net/profile/Alex_Martinez_Ascension/publication/347759884_BigMPI4py_Python_module_for_parallelization_of_Big_Data_objects_discloses_germ_layer_specific_DNA_demethylation_motifs/links/600eb64992851c13fe35a5eb/BigMPI4py-Python-module-for-parallelization-of-Big-Data-objects-discloses-germ-layer-specific-DNA-demethylation-motifs.pdf?_sg%5B0%5D=qvbnStckhadZqjLcy9PBVzl89lonOd0fa4LKS_gn6QcQ59DixPgt-zYn4hZdTCt6zoVwW5rzWSIH3I4VGGVGSw.QSJ-DVLwsBQedWAnoh8VRgBmOrbxykRY5hgmhWA4aZIdsPFizqofXCj3XnmgYrFcOcqmrZEjeJuaFKlSNaSKVQ&_sg%5B1%5D=tTf7OnK7JUdFMNYdO8Cxk1h0AQJ798kjwOAbvSLVTt2SZ9jrZMGxbG9veM_v02FQtBNItinQ9y3dn4Rp2p17eNu3kXe483kZBFUhzjRwf5dy.QSJ-DVLwsBQedWAnoh8VRgBmOrbxykRY5hgmhWA4aZIdsPFizqofXCj3XnmgYrFcOcqmrZEjeJuaFKlSNaSKVQ&_sg%5B2%5D=WYTLuLEp5X_M1zh4eO1SN-_C8qieDeK2mVeWVB4GQ6Ou7HH5EgoQbNt7Udv3QVE_ihjRyv9XQBJRrW0.6j90QaM3uSeKTCuwfhWZwmaHQePuGYEJbk_0CDsuWjEGBVvMdJVovps02g3dZzpgplHdz5wIu_xxqqpOzt9CQw&_iepl="
    },
    {
      "title": "HuR/ELAVL1 drives malignant peripheral nerve sheath tumour growth and metastasis",
      "authors": [
        "Marta Palomo-Irigoyen", 
        "Encarnación Pérez-Andrés", 
        "Marta Iruarrizaga-Lejarreta", 
        "Adrián Barreira Manrique;Miguel Tamayo-Caro", 
        "Laura Vila-Vecilla", 
        "Leire Moreno-Cugnon", 
        "Nagore Beitia Telletxea", 
        "Daniela Medrano", 
        "David Fernández-Ramos", 
        "Juan-Jose Lozano", 
        "Satoshi Okawa", 
        "José Luis Lavín", 
        "Natalia Martin-Martin", 
        "James D.Sutherland", 
        "Virginia Gutiérrez-de Juan", 
        "Monika Gonzalez-Lopez", 
        "Nuria Macias-Camara", 
        "David Mosén-Ansorena;Liyam Laraba", 
        "C. Oliver Hanemann", 
        "Emanuela Ercolano", 
        "David B. Parkinson", 
        "Christopher W. Schultz", 
        "Marcos J.  Araúzo-Bravo", 
        "Alex M. Ascensión", 
        "Daniela Gerovska", 
        "Haizea Iribar", 
        "Ander Izeta", 
        "Peter Pytel", 
        "Philipp Krastel", 
        "Alessandro Provenzani", 
        "Pierfausto Seneci", 
        "Ruben D. Carrasco", 
        "Antonio del Sol", 
        "Maria L. Martinez Chantar", 
        "Rosa Barrio", 
        "Eduard Serra", 
        "Conxi Lázaro", 
        "Adrienne M. Flanagan", 
        "Myriam Gorospe", 
        "Nancy Ratner", 
        "Arkaitz Carracedo", 
        "Ana María Aransay", 
        "Marta Varela-Rey", 
        "Ashwin Woodhoo"
      ],
      "journal": "Journal of Clinical Investigation",
      "volume": "",
      "year": "2020",
      "month": "04",
      "doi": "https://doi.org/10.1172/jci130",
      "impact factor": "12.282",
      "category": "Medicine",
      "rank": "3/136",
      "pdf": "https://www.jci.org/articles/view/130379/version/3/pdf/render.pdf"
    },
    {
      "title": "Signal Integration and Transcriptional Regulation of the Inflammatory Response Mediated by the GM-/M-CSF Signaling Axis in Human Monocytes",
      "authors": [
        "Ramon M. Rodriguez",
        "Beatriz Suarez-Alvarez",
        "Jose L. Lavín",
        "Alex M. Ascensión",
        "Monika Gonzalez",
        "Juan J. Lozano",
        "Aroa B. Raneros",
        "Paula D. Bulnes",
        "Jose R. Vidal-Castiñeira",
        "Covadonga Huidobro",
        "Cristina Martin-Martin",
        "Ana B. Sanz",
        "Marta Ruiz-Ortega",
        "Amaya Puig-Kröger",
        "Angel L. Corbí",
        "Marcos J. Araúzo-Bravo",
        "Ana M. Aransay",
        "Carlos Lopez-Larrea"
      ],
      "journal": "Cell Reports",
      "volume": "29",
      "year": "2019",
      "month": "10",
      "doi": "https://doi.org/10.1016/j.celrep.2019.09.035",
      "impact factor": "7.815",
      "category": "Cell Biology",
      "rank": "29/193",
      "pdf": "https://www.cell.com/cell-reports/pdfExtended/S2211-1247(19)31223-9"
    }, 
    {
      "title": "NaviSE: superenhancer navigator integrating epigenomics signal algebra",
      "authors": [
        "Alex M. Ascensión",
        "Mikel Arrospide-Elgarresta",
        "Ander Izeta",
        "Marcos J. Araúzo-Bravo"
      ],
      "journal": "BMC Bioinformatics",
      "volume": "18",
      "year": "2017",
      "month": "07",
      "doi": "https://doi.org/10.1186/s12859-017-1698-5",
      "impact factor": "2.213",
      "category": "Mathematical & Computational Biology",
      "rank": "14/59",
      "pdf": "https://bmcbioinformatics.biomedcentral.com/track/pdf/10.1186/s12859-017-1698-5.pdf"
    }
  ],
  "preprints": [
    {
      "title": "Triku: a feature selection method based on nearest neighbors for single-cell data",
      "authors": [
        "Alex M Ascensión", 
        "Olga Ibáñez-Solé",
        "Inaki Inza", 
        "Ander Izeta",
        "Marcos J. Araúzo-Bravo"
      ],
      "journal": "bioRxiv",
      "volume": "",
      "year": "2021",
      "month": "02",
      "doi": "https://doi.org/10.1101/2021.02.12.430764",
      "pdf": "https://www.biorxiv.org/content/10.1101/2021.02.12.430764v1.full.pdf"
    },
    {
      "title": "BigMPI4py: Python module for parallelization of Big Data objects",
      "authors": [
        "Alex M Ascensión", 
        "Marcos J. Araúzo-Bravo"
      ],
      "journal": "bioRxiv",
      "volume": "",
      "year": "2020",
      "month": "03",
      "doi": "https://doi.org/10.1101/517441",
      "pdf": "https://www.biorxiv.org/content/10.1101/517441v2.full.pdf"
    },
    {
      "title": "FOntCell: Fusion of Ontologies of Cells",
      "authors": [
        "Javier Cabau-Laporta", 
        "Alex M. Ascensión", 
        "Mikel Arrospide-Elgarresta",
        "Daniela Gerovska",
        "Marcos J. Araúzo-Bravo"
      ],
      "journal": "bioRxiv",
      "volume": "",
      "year": "2019",
      "month": "11",
      "doi": "https://doi.org/10.1101/850131",
      "pdf": "https://www.biorxiv.org/content/10.1101/850131v1.full.pdf"
    }
  ],
  "curricular activities": [
    {
      "title": "Web Application Technologies and Django (1/4)",
      "entity": "Coursera",
      "instructor": "Charles Russell Severance (U. Michigan)",
      "location": "Online",
      "startDate": "2020-09-01",
      "endDate": "2020-09-23",
      "summary": "I learned about the HTML basics, GET/POST, CSS, SQL.",
      "url": "https://www.coursera.org/learn/django-database-web-apps",
      "certificate-url": "https://www.coursera.org/account/accomplishments/certificate/8TUAQU5X74NY"
    }, 
    {
      "title": "Neuural Networks and Deep Learning",
      "entity": "Coursera",
      "instructor": "Andrew Ng (DeepLearning.ai)",
      "location": "Online",
      "startDate": "2019-07-19",
      "endDate": "2019-06-17",
      "summary": "I learned about the basic model construction of a neural network, and the theorical bases of backpropagation.",
      "url": "https://www.coursera.org/learn/neural-networks-deep-learning",
      "certificate-url": "https://www.coursera.org/account/accomplishments/certificate/EGVRKKDRMUJ8"
    },
    {
      "title": "Web Application Technologies and Django (1/4)",
      "entity": "Coursera",
      "instructor": "Charles Russell Severance (U. Michigan)",
      "location": "Online",
      "startDate": "2020-09-01",
      "endDate": "2020-09-23",
      "summary": "I learned about the HTML basics, GET/POST, CSS, SQL",
      "url": "https://www.coursera.org/learn/django-database-web-apps",
      "certificate-url": "https://www.coursera.org/account/accomplishments/certificate/YSDQ2QGG9J23"
    }
  ],
  "conferences": [
    {
      "title": "10x Genomics Virtual User Group Meeting - Spain",
      "conference-type": "Conference",
      "activity": "Attendee",
      "entity": "10X",
      "location": "Virtual meeting, Spain",
      "startDate": "2021-03-18",
      "endDate": "2021-03-18",
      "summary": "",
      "url": ""
    },
    {
      "title": "Human Cell Atlas, Barcelona Meeting",
      "conference-type": "Conference",
      "activity": "Attendee",
      "entity": "Human Cell Atlas",
      "location": "Barcelona, Spain",
      "startDate": "2019-10-10",
      "endDate": "2019-10-11",
      "summary": "",
      "url": ""
    },
    {
      "title": "Bioinformatics Student Symposium",
      "conference-type": "Conference",
      "activity": "Poster presentation",
      "entity": "ISCB Regional Student Group",
      "location": "Leuven, Belgium",
      "startDate": "2019-05-03",
      "endDate": "2019-05-03",
      "summary": "",
      "url": ""
    },
    {
      "title": "VI Jornada de Bioinformàtica i Genòmica",
      "conference-type": "Conference",
      "activity": "Attendee",
      "entity": "Societat Catalana de Biologia",
      "location": "Barcelona, Spain",
      "startDate": "2018-12-20",
      "endDate": "2018-12-20",
      "summary": "",
      "url": ""
    }
  ],
  "skills": [],
  "languages": [
    {
      "language": "Spanish",
      "fluency": "Native speaker"
    }, 
    {
      "language": "Basque",
      "fluency": "Native speaker (B2 - EOI)"
    }, 
    {
      "language": "English",
      "fluency": "CAE (C1)"
    }
  ],
  "interests": [],
  "references": [],
  "projects": [
    {
      "name": "Análisis de datos masivos (Big Data) aplicado a enfermedad renal",
      "description": "Supervised project of Leire Ahedo Fontaneda.",
      "highlights": ["Transición del mundo educativo al laboral"],
      "keywords": [],
      "startDate": "2019-08-01",
      "endDate": "2019-05-01",
      "url": "",
      "roles": [
        "Project supervisor"
      ],
      "entity": "University of the Basque Country (UPV-EHU)",
      "type": ""
    }
  ],
  "meta": {
  }
}
